﻿[
  {
    "application": "servicerequest",
    "action": "crud_create",
    "actiondescription": "Create Service Request Validation",
    "data": {
      "tophiddenfield": null,
      "ticketid": null,
      "ticketuid": null,
      "description": "test",
      "status": "NEW",
      "siteid": "BEDFORD",
      "locationhiddenfield": null,
      "ld_.ldtext": null,
      "actlabcost": null,
      "actlabhrs": null,
      "orgid": "EAGLENA",
      "createby": null,
      "changedate": null,
      "classificationid": null,
      "reportedemail": null,
      "affectedemail": null,
      "class": null,
      "solution": null,
      "assetsiteid": null,
      "location": null,
      "assetnum": null,
      "failurecode": null,
      "cinum": null,
      "ownerperson_.displayname": null,
      "changeby": "SWADMIN",
      "owner": null,
      "ownergroup": null,
      "reportedby": "SWADMIN",
      "reportdate": "07/13/2016 20:55",
      "internalpriority": null,
      "classstructureid": null,
      "affectedperson": "SWADMIN",
      "newattachment": null,
      "sraddress_.description": null,
      "sraddress_.staddrnumber": null,
      "sraddress_.staddrstreet": null,
      "sraddress_.staddrsttype": null,
      "sraddress_.formattedaddress": null,
      "saddresscode": null,
      "targetstart": null,
      "targetfinish": null,
      "actualstart": null,
      "actualfinish": null,
      "location_.serviceaddress_.latitudey": null,
      "location_.serviceaddress_.longitudex": null,
      "location_.serviceaddress_.addresscode": null,
      "location_.serviceaddress_.description": null,
      "location_.serviceaddress_.streetaddress": null,
      "location_.serviceaddress_.city": null,
      "location_.serviceaddress_.stateprovince": null,
      "location_.serviceaddress_.country": null,
      "asset_.location": null
    }
  },
  {
    "application": "servicerequest",
    "action": "crud_update",
    "actiondescription": "Update Service Request Validation",
    "data": {
      "ticketid": "2686",
      "ticketuid": 5302,
      "description": "test",
      "siteid": "BEDFORD",
      "actlabcost": 0,
      "actlabhrs": 0,
      "orgid": "EAGLENA",
      "changedate": "07/06/2016 03:23",
      "reportedemail": "ahabbu@controltechnologysolutions.com",
      "affectedemail": "ahabbu@controltechnologysolutions.com",
      "class": "SR",
      "solution": null,
      "assetsiteid": "BEDFORD",
      "location": null,
      "assetnum": null,
      "failurecode": null,
      "cinum": null,
      "changeby": "MXINTADM",
      "reportdate": "06/30/2016 02:57",
      "targetstart": null,
      "targetfinish": null,
      "actualstart": "2016-07-06T03:22:43+05:30",
      "actualfinish": null,
      "owner": null,
      "ownergroup": null,
      "reportedby": "SWADMIN",
      "internalpriority": null,
      "classstructureid": null,
      "affectedperson": "SWADMIN",
      "status": "QUEUED",
      "rowstamp": 41141869,
      "ownerperson_.displayname": null,
      "ld_.ldtext": "<br/>",
      "location_.serviceaddress_.latitudey": null,
      "location_.serviceaddress_.longitudex": null,
      "location_.serviceaddress_.addresscode": null,
      "location_.serviceaddress_.description": null,
      "location_.serviceaddress_.streetaddress": null,
      "location_.serviceaddress_.city": null,
      "location_.serviceaddress_.stateprovince": null,
      "location_.serviceaddress_.country": null,
      "asset_.location": null,
      "sraddress_.description": null,
      "sraddress_.staddrnumber": null,
      "sraddress_.staddrstreet": null,
      "sraddress_.staddrsttype": null,
      "sraddress_.formattedaddress": null,
       "worklog_": [
        {
          "_iscreation": true,
          "logtype": "CLIENTNOTE",
          "clientviewable": "0",
          "createdate": null,
          "wld_.ldtext": "<p>new for test</p>",
          "description": "new",
          "#isDirty": true
        }
      ],
      "attachment_": [ ],
      "commlog_": [ ],
      "relatedrecord_": [
          {
            "relatedreckey": "2213",
            "relatedrecclass": "WORKORDER",
            "siteid": "BEDFORD",
            "relatedrecordid": 3552,
            "recordkey": "2686",
            "class": "SR"
          }
        ]
    }
  }
]